<svg width="48" height="48" viewBox="0 0 48 48" fill="none" xmlns="http://www.w3.org/2000/svg">
<g clip-path="url(#clip0_214_97)">
<path d="M24 5.49986H36.24C37.8251 5.42919 39.3736 5.98925 40.5468 7.05747C41.72 8.1257 42.4222 9.61511 42.5 11.1999V36.7999C42.4222 38.3846 41.72 39.874 40.5468 40.9422C39.3736 42.0105 37.8251 42.5705 36.24 42.4999H24" stroke="white" stroke-width="3" stroke-linecap="round" stroke-linejoin="round"/>
<path d="M30.0001 24H5.56006" stroke="white" stroke-width="3" stroke-linecap="round" stroke-linejoin="round"/>
<path d="M5.49994 24L13.4999 32" stroke="white" stroke-width="3" stroke-linecap="round" stroke-linejoin="round"/>
<path d="M5.49994 24L13.4999 16" stroke="white" stroke-width="3" stroke-linecap="round" stroke-linejoin="round"/>
</g>
<defs>
<clipPath id="clip0_214_97">
<rect width="48" height="48" fill="white"/>
</clipPath>
</defs>
</svg>
