<svg width="48" height="48" viewBox="0 0 48 48" fill="none" xmlns="http://www.w3.org/2000/svg">
<g clip-path="url(#clip0_214_101)">
<path d="M21.3399 39.94C20.8599 39.98 20.3799 40 19.8999 40C17.5599 40 15.3399 39.44 13.3599 38.46L5.57993 39.58L6.75995 31.76H6.77994C5.97994 30 5.49994 28.06 5.49994 26C5.49994 22.22 7.03993 18.8 9.51993 16.28" stroke="white" stroke-width="3" stroke-linecap="round" stroke-linejoin="round"/>
<path d="M21.7202 23.5602C22.6038 23.5602 23.3202 22.8617 23.3202 22.0002C23.3202 21.1386 22.6038 20.4402 21.7202 20.4402C20.8365 20.4402 20.1202 21.1386 20.1202 22.0002C20.1202 22.8617 20.8365 23.5602 21.7202 23.5602Z" fill="white"/>
<path d="M28.12 23.5602C29.0037 23.5602 29.72 22.8617 29.72 22.0002C29.72 21.1386 29.0037 20.4402 28.12 20.4402C27.2364 20.4402 26.52 21.1386 26.52 22.0002C26.52 22.8617 27.2364 23.5602 28.12 23.5602Z" fill="white"/>
<path d="M34.5002 23.5602C35.3838 23.5602 36.1002 22.8617 36.1002 22.0002C36.1002 21.1386 35.3838 20.4402 34.5002 20.4402C33.6165 20.4402 32.9001 21.1386 32.9001 22.0002C32.9001 22.8617 33.6165 23.5602 34.5002 23.5602Z" fill="white"/>
<path d="M41.24 27.76L42.42 35.58L34.64 34.46C33.24 35.16 31.72 35.64 30.1 35.86C29.46 35.96 28.78 36 28.1 36C20.14 36 13.72 29.74 13.72 22C13.72 18.14 15.3 14.7 17.9 12.16C20.48 9.58 24.1 8 28.12 8C36.08 8 42.5 14.26 42.5 22C42.5 24.06 42.02 26 41.22 27.76H41.24V27.76Z" stroke="white" stroke-width="3" stroke-linecap="round" stroke-linejoin="round"/>
</g>
<defs>
<clipPath id="clip0_214_101">
<rect width="48" height="48" fill="white"/>
</clipPath>
</defs>
</svg>
